0_fscore,1_fscore,2_fscore,3_fscore,4_fscore,5_fscore,6_fscore,7_fscore,8_fscore,accuracy
0.0,0.3574692799837514,,0.4838868278728825,0.2978868438991138,0.2786108918705604,0.05877551020408163,0.0,0.0,0.359921875
0.0,0.3363831469558342,,0.4502544916692043,0.2578308890095962,0.2559978189749182,0.10423597249944554,0.0,,0.333984375
0.0,0.3594721343657978,,0.4633978494623655,0.2413657770800628,0.24788424788424787,0.07552513570922822,0.0,,0.340546875
0.0,0.3384760334471794,,0.45994679278746675,0.25867989317054557,0.25369167158889544,0.11101871101871102,0.0,,0.3393359375
0.0,0.3615620886353664,,0.44689021734827195,0.1381898454746137,0.23119381800977765,0.002159827213822894,0.0,,0.325859375
