0_fscore,1_fscore,2_fscore,3_fscore,4_fscore,5_fscore,6_fscore,7_fscore,accuracy
0.07445887445887446,0.029363784665579117,0.5469841508300158,0.08104886769964242,0.02197802197802198,0.3014141414141414,0.0889487870619946,0.20236638106895144,0.39094345825115057
0.07881773399014778,0.02030456852791878,0.5520537507792478,0.05520504731861199,0.009876543209876543,0.25684365239757484,0.046128500823723224,0.2299794661190965,0.40083833319635076
0.029304029304029304,0.023255813953488375,0.4809388439390626,0.046278924327704814,0.012232415902140675,0.2343929528916124,0.041666666666666664,0.21886792452830187,0.33525108901125994
0.02380952380952381,0.017599999999999998,0.41062837687809933,0.03571428571428571,0.015189873417721518,0.19107217355027117,0.029767441860465114,0.20421753607103219,0.278951261609271
0.0311284046692607,0.005232177894048398,0.39270687237026647,0.029652351738241312,0.0064516129032258064,0.22308063737324965,0.016602809706257982,0.17128874388254486,0.25856825840387937
